<?xml version="1.0" encoding="utf-8"?>
<!-- Generator: Adobe Illustrator 17.0.0, SVG Export Plug-In . SVG Version: 6.00 Build 0)  -->
<!DOCTYPE svg PUBLIC "-//W3C//DTD SVG 1.1//EN" "http://www.w3.org/Graphics/SVG/1.1/DTD/svg11.dtd">
<svg version="1.1" id="Layer_1" xmlns="http://www.w3.org/2000/svg" xmlns:xlink="http://www.w3.org/1999/xlink" x="0px" y="0px"
	 width="21.79px" height="21.788px" viewBox="0 0 21.79 21.788" enable-background="new 0 0 21.79 21.788" xml:space="preserve">
<path fill-rule="evenodd" clip-rule="evenodd" d="M21.401,1.801l-9.097,9.097l9.077,9.077c0.51,0.51,0.506,1.122,0.117,1.511
	l-0.022,0.022c-0.389,0.39-1.001,0.393-1.511-0.117l-9.077-9.077l-9.077,9.077c-0.51,0.511-1.126,0.491-1.51,0.106l-0.022-0.021
	c-0.384-0.384-0.395-0.991,0.116-1.501l9.077-9.077L0.394,1.821c-0.51-0.51-0.498-1.144-0.108-1.534l0.001-0.012
	C0.677-0.113,1.3-0.106,1.811,0.405l9.077,9.077l9.097-9.097c0.51-0.51,1.13-0.481,1.514-0.097l0.008,0.003
	C21.891,0.675,21.911,1.291,21.401,1.801z"/>
</svg>
