<?xml version="1.0" encoding="utf-8"?>
<!-- Generator: Adobe Illustrator 17.0.0, SVG Export Plug-In . SVG Version: 6.00 Build 0)  -->
<!DOCTYPE svg PUBLIC "-//W3C//DTD SVG 1.1//EN" "http://www.w3.org/Graphics/SVG/1.1/DTD/svg11.dtd">
<svg version="1.1" id="Layer_1" xmlns="http://www.w3.org/2000/svg" xmlns:xlink="http://www.w3.org/1999/xlink" x="0px" y="0px"
	 width="21.998px" height="22px" viewBox="0 0 21.998 22" enable-background="new 0 0 21.998 22" xml:space="preserve">
<path stroke="#c1c1c1" fill="#fff" fill-rule="evenodd" clip-rule="evenodd" d="M10.999,0l3.625,6.914l7.373,1.49l-5.133,5.762L17.797,22l-6.798-3.353L4.201,22
	l0.932-7.834L0,8.403l7.373-1.49L10.999,0"/>
</svg>
